<svg width="450" height="470" viewBox="0 0 450 470" fill="none" xmlns="http://www.w3.org/2000/svg">
<g filter="url(#filter0_d)">
<mask id="path-1-inside-1" fill="white">
<path fill-rule="evenodd" clip-rule="evenodd" d="M40 38C40 33.5817 43.5817 30 48 30H402C406.418 30 410 33.5817 410 38V412C410 416.418 406.418 420 402 420H48C43.5817 420 40 416.418 40 412V377.292C41.4659 378.952 43.6106 380 46 380C50.4183 380 54 376.418 54 372C54 367.582 50.4183 364 46 364C43.6106 364 41.4659 365.048 40 366.708V354.292C41.4659 355.952 43.6106 357 46 357C50.4183 357 54 353.418 54 349C54 344.582 50.4183 341 46 341C43.6106 341 41.4659 342.048 40 343.708V102.292C41.4659 103.952 43.6106 105 46 105C50.4183 105 54 101.418 54 97C54 92.5817 50.4183 89 46 89C43.6106 89 41.4659 90.0475 40 91.7084V79.2916C41.4659 80.9525 43.6106 82 46 82C50.4183 82 54 78.4183 54 74C54 69.5817 50.4183 66 46 66C43.6106 66 41.4659 67.0475 40 68.7084V38Z"/>
</mask>
<path fill-rule="evenodd" clip-rule="evenodd" d="M40 38C40 33.5817 43.5817 30 48 30H402C406.418 30 410 33.5817 410 38V412C410 416.418 406.418 420 402 420H48C43.5817 420 40 416.418 40 412V377.292C41.4659 378.952 43.6106 380 46 380C50.4183 380 54 376.418 54 372C54 367.582 50.4183 364 46 364C43.6106 364 41.4659 365.048 40 366.708V354.292C41.4659 355.952 43.6106 357 46 357C50.4183 357 54 353.418 54 349C54 344.582 50.4183 341 46 341C43.6106 341 41.4659 342.048 40 343.708V102.292C41.4659 103.952 43.6106 105 46 105C50.4183 105 54 101.418 54 97C54 92.5817 50.4183 89 46 89C43.6106 89 41.4659 90.0475 40 91.7084V79.2916C41.4659 80.9525 43.6106 82 46 82C50.4183 82 54 78.4183 54 74C54 69.5817 50.4183 66 46 66C43.6106 66 41.4659 67.0475 40 68.7084V38Z" fill="white"/>
<path d="M40 377.292L40.7497 376.63L39 374.647V377.292H40ZM40 366.708H39V369.353L40.7497 367.37L40 366.708ZM40 354.292L40.7497 353.63L39 351.647V354.292H40ZM40 343.708H39V346.353L40.7497 344.37L40 343.708ZM40 102.292L40.7497 101.63L39 99.6475V102.292H40ZM40 91.7084H39V94.3525L40.7497 92.3701L40 91.7084ZM40 79.2916L40.7497 78.6299L39 76.6475V79.2916H40ZM40 68.7084H39V71.3525L40.7497 69.3701L40 68.7084ZM48 29C43.0294 29 39 33.0294 39 38H41C41 34.134 44.134 31 48 31V29ZM402 29H48V31H402V29ZM411 38C411 33.0294 406.971 29 402 29V31C405.866 31 409 34.134 409 38H411ZM411 412V38H409V412H411ZM402 421C406.971 421 411 416.971 411 412H409C409 415.866 405.866 419 402 419V421ZM48 421H402V419H48V421ZM39 412C39 416.971 43.0294 421 48 421V419C44.134 419 41 415.866 41 412H39ZM39 377.292V412H41V377.292H39ZM46 379C43.9094 379 42.0339 378.085 40.7497 376.63L39.2503 377.953C40.8979 379.82 43.3118 381 46 381V379ZM53 372C53 375.866 49.866 379 46 379V381C50.9706 381 55 376.971 55 372H53ZM46 365C49.866 365 53 368.134 53 372H55C55 367.029 50.9706 363 46 363V365ZM40.7497 367.37C42.0339 365.915 43.9094 365 46 365V363C43.3118 363 40.8979 364.18 39.2503 366.047L40.7497 367.37ZM39 354.292V366.708H41V354.292H39ZM46 356C43.9094 356 42.0339 355.085 40.7497 353.63L39.2503 354.953C40.8979 356.82 43.3118 358 46 358V356ZM53 349C53 352.866 49.866 356 46 356V358C50.9706 358 55 353.971 55 349H53ZM46 342C49.866 342 53 345.134 53 349H55C55 344.029 50.9706 340 46 340V342ZM40.7497 344.37C42.0339 342.915 43.9094 342 46 342V340C43.3118 340 40.8979 341.18 39.2503 343.047L40.7497 344.37ZM39 102.292V343.708H41V102.292H39ZM46 104C43.9094 104 42.0339 103.085 40.7497 101.63L39.2503 102.953C40.8979 104.82 43.3118 106 46 106V104ZM53 97C53 100.866 49.866 104 46 104V106C50.9706 106 55 101.971 55 97H53ZM46 90C49.866 90 53 93.134 53 97H55C55 92.0294 50.9706 88 46 88V90ZM40.7497 92.3701C42.0339 90.9152 43.9094 90 46 90V88C43.3118 88 40.8979 89.1798 39.2503 91.0466L40.7497 92.3701ZM39 79.2916V91.7084H41V79.2916H39ZM46 81C43.9094 81 42.0339 80.0848 40.7497 78.6299L39.2503 79.9534C40.8979 81.8202 43.3118 83 46 83V81ZM53 74C53 77.866 49.866 81 46 81V83C50.9706 83 55 78.9706 55 74H53ZM46 67C49.866 67 53 70.134 53 74H55C55 69.0294 50.9706 65 46 65V67ZM40.7497 69.3701C42.0339 67.9152 43.9094 67 46 67V65C43.3118 65 40.8979 66.1798 39.2503 68.0466L40.7497 69.3701ZM39 38V68.7084H41V38H39Z" fill="#EDF0FF" mask="url(#path-1-inside-1)"/>
</g>
<defs>
<filter id="filter0_d" x="0" y="0" width="450" height="470" filterUnits="userSpaceOnUse" color-interpolation-filters="sRGB">
<feFlood flood-opacity="0" result="BackgroundImageFix"/>
<feColorMatrix in="SourceAlpha" type="matrix" values="0 0 0 0 0 0 0 0 0 0 0 0 0 0 0 0 0 0 127 0" result="hardAlpha"/>
<feOffset dy="10"/>
<feGaussianBlur stdDeviation="20"/>
<feColorMatrix type="matrix" values="0 0 0 0 0.734375 0 0 0 0 0.738281 0 0 0 0 0.75 0 0 0 0.2 0"/>
<feBlend mode="normal" in2="BackgroundImageFix" result="effect1_dropShadow"/>
<feBlend mode="normal" in="SourceGraphic" in2="effect1_dropShadow" result="shape"/>
</filter>
</defs>
</svg>
