<svg width="39" height="14" viewBox="0 0 39 14" fill="none" xmlns="http://www.w3.org/2000/svg">
<g clip-path="url(#clip0)">
<path d="M3.56738 3.45267H4.90473L4.23606 1.76099L3.56738 3.45267Z" fill="#2FABF7"/>
<path d="M20.1625 2.00256C20.041 1.94214 19.8586 1.94214 19.6762 1.94214H18.4604V2.90882H19.6762C19.8586 2.90882 20.041 2.90882 20.1625 2.8484C20.2841 2.78798 20.3449 2.60673 20.3449 2.42548C20.4057 2.18381 20.2841 2.06297 20.1625 2.00256Z" fill="#228FE0"/>
<path d="M33.1713 0.192139V0.917148L32.8065 0.192139H29.9495V0.917148L29.5847 0.192139H25.6943C25.0256 0.192139 24.4785 0.312974 23.9922 0.554643V0.192139H21.2567V0.554643C20.9528 0.312974 20.588 0.192139 20.1017 0.192139H10.3148L9.6461 1.70257L8.97743 0.192139H5.87721V0.917148L5.51248 0.192139H2.89857L1.6828 3.03176L0.284668 6.17346H1.6828H3.38488L3.74961 5.20678H4.60065L4.96538 6.17346H8.49112V5.44845L8.79506 6.17346H10.5579L10.8619 5.44845V6.17346H19.3115V4.60261H19.4331C19.5546 4.60261 19.5546 4.60261 19.5546 4.78386V6.11304H23.9314V5.75054C24.2961 5.93179 24.8432 6.11304 25.5727 6.11304H27.3963L27.7611 5.14637H28.6121L28.9769 6.11304H32.5026V5.20678L33.0497 6.11304H35.9067V0.192139H33.1713ZM12.6247 5.2672H11.5913V1.94424L10.1324 5.2672H9.22058L7.76166 1.94424V5.2672H5.69485L5.26933 4.36094H3.20252L2.83779 5.32762H1.6828L3.50646 1.03798H5.02617L6.72825 5.08595V1.03798H8.36954L9.70689 3.93802L10.9227 1.03798H12.6247V5.2672ZM16.7584 1.94424H14.3876V2.72967H16.6976V3.57551H14.3876V4.42136H16.7584V5.32762H13.3542V1.03798H16.7584V1.94424ZM21.3175 3.69635C21.4391 3.93802 21.4999 4.11927 21.4999 4.48177V5.32762H20.4665V4.78386C20.4665 4.54219 20.4665 4.17969 20.2841 3.93802C20.1017 3.75677 19.9194 3.75677 19.5546 3.75677H18.4604V5.32762H17.427V1.03798H19.737C20.2841 1.03798 20.6488 1.03798 20.9528 1.21923C21.2567 1.40049 21.4391 1.70257 21.4391 2.18591C21.4391 2.8505 21.0136 3.21301 20.7096 3.33384C21.0136 3.39426 21.1959 3.57551 21.3175 3.69635ZM23.1412 5.2672H22.1077V0.977566H23.1412V5.2672ZM35.1165 5.2672H33.6576L31.7123 2.06508V5.2672H29.6455L29.2808 4.36094H27.1532L26.7885 5.32762H25.6335C25.1472 5.32762 24.5393 5.20678 24.1746 4.84428C23.8098 4.48177 23.6275 3.99843 23.6275 3.21301C23.6275 2.60883 23.749 2.00466 24.1746 1.52132C24.4785 1.15882 25.0256 1.03798 25.6943 1.03798H26.6669V1.94424H25.6943C25.3295 1.94424 25.1472 2.00466 24.904 2.18591C24.7217 2.36717 24.6001 2.72967 24.6001 3.15259C24.6001 3.63593 24.6609 3.93802 24.904 4.17969C25.0864 4.36094 25.3295 4.42136 25.6335 4.42136H26.059L27.4571 1.0984H28.9769L30.6789 5.14637V1.0984H32.1986L33.9615 4.05885V1.0984H34.9949V5.2672H35.1165Z" fill="#0571C1"/>
<path d="M27.5181 3.45267H28.9162L28.2475 1.76099L27.5181 3.45267Z" fill="#228FE0"/>
<path d="M17.184 12.153V8.70923L15.6035 10.4009L17.184 12.153Z" fill="#228FE0"/>
<path d="M10.6797 9.13208V9.91751H12.9289V10.7634H10.6797V11.6696H13.172L14.327 10.4008L13.2328 9.13208H10.6797Z" fill="#2FABF7"/>
<path d="M19.4938 9.13208H18.2173V10.2196H19.5546C19.9194 10.2196 20.1625 10.0383 20.1625 9.67584C20.1017 9.31333 19.8586 9.13208 19.4938 9.13208Z" fill="#228FE0"/>
<path d="M38.2776 10.1592V7.44043H37.5481H35.7245C35.1774 7.44043 34.7519 7.56127 34.4479 7.80294V7.44043H31.6516C31.2261 7.44043 30.679 7.56127 30.4359 7.80294V7.44043H25.512V7.80294C25.1473 7.50085 24.4786 7.44043 24.1747 7.44043H20.8921V7.80294C20.5881 7.50085 19.8587 7.44043 19.4939 7.44043H15.8466L14.9956 8.34669L14.2053 7.44043H8.73438V13.3613H14.0838L14.9348 12.4551L15.7251 13.3613H19.0076V11.9717H19.4332C19.8587 11.9717 20.4058 11.9717 20.8313 11.7905V13.4218H23.5668V11.8509H23.6884C23.8707 11.8509 23.8707 11.8509 23.8707 12.0322V13.4218H32.138C32.6851 13.4218 33.2321 13.3009 33.5361 13.0592V13.4218H36.15C36.6971 13.4218 37.2442 13.3613 37.6089 13.1197C38.2168 12.7572 38.5815 12.0926 38.5815 11.3071C38.5815 10.8842 38.46 10.4613 38.2776 10.1592ZM19.4332 11.1259H18.2174V12.5759H16.2722L15.0564 11.1863L13.7798 12.5759H9.76778V8.28627H13.8406L15.0564 9.67587L16.3329 8.28627H19.5547C20.345 8.28627 21.2568 8.52794 21.2568 9.67587C21.196 10.8842 20.345 11.1259 19.4332 11.1259ZM25.512 10.8842C25.6336 11.0655 25.6944 11.3071 25.6944 11.6696V12.5155H24.661V11.9717C24.661 11.7301 24.661 11.3071 24.4786 11.1259C24.357 10.9446 24.1139 10.9446 23.7491 10.9446H22.6549V12.5155H21.6215V8.22586H23.9315C24.4178 8.22586 24.8433 8.22586 25.1473 8.40711C25.4512 8.58836 25.6944 8.89045 25.6944 9.37379C25.6944 10.0384 25.2689 10.4009 24.9649 10.5217C25.2689 10.6426 25.4512 10.7634 25.512 10.8842ZM29.7064 9.13212H27.3357V9.91754H29.6456V10.7634H27.3357V11.6092H29.7064V12.5155H26.3023V8.22586H29.7064V9.13212ZM32.2595 12.5155H30.3143V11.6092H32.2595C32.4419 11.6092 32.5635 11.6092 32.6851 11.4884C32.7458 11.428 32.8066 11.3071 32.8066 11.1863C32.8066 11.0655 32.7458 10.9446 32.6851 10.8842C32.6243 10.8238 32.5027 10.7634 32.3203 10.7634C31.3477 10.703 30.1927 10.7634 30.1927 9.4342C30.1927 8.83003 30.5575 8.16544 31.6516 8.16544H33.6577V9.19254H31.7732C31.5909 9.19254 31.4693 9.19253 31.3477 9.25295C31.2261 9.31337 31.2261 9.4342 31.2261 9.55504C31.2261 9.73629 31.3477 9.79671 31.4693 9.85713C31.5909 9.91754 31.7124 9.91754 31.834 9.91754H32.3811C32.9282 9.91754 33.2929 10.0384 33.5361 10.28C33.7185 10.4613 33.84 10.7634 33.84 11.1863C33.84 12.0926 33.2929 12.5155 32.2595 12.5155ZM37.4873 12.0926C37.2442 12.3342 36.8187 12.5155 36.2108 12.5155H34.2656V11.6092H36.2108C36.3931 11.6092 36.5147 11.6092 36.6363 11.4884C36.6971 11.428 36.7579 11.3071 36.7579 11.1863C36.7579 11.0655 36.6971 10.9446 36.6363 10.8842C36.5755 10.8238 36.4539 10.7634 36.2716 10.7634C35.299 10.703 34.144 10.7634 34.144 9.4342C34.144 8.83003 34.5087 8.16544 35.6029 8.16544H37.6089V9.19254H35.7853C35.6029 9.19254 35.4813 9.19253 35.3597 9.25295C35.2382 9.31337 35.2382 9.4342 35.2382 9.55504C35.2382 9.73629 35.299 9.79671 35.4813 9.85713C35.6029 9.91754 35.7245 9.91754 35.8461 9.91754H36.3932C36.9402 9.91754 37.305 10.0384 37.5481 10.28C37.6089 10.28 37.6089 10.3405 37.6089 10.3405C37.7913 10.5821 37.8521 10.8842 37.8521 11.1863C37.8521 11.5488 37.7305 11.8509 37.4873 12.0926Z" fill="#0571C1"/>
<path d="M24.4179 9.2528C24.2963 9.19238 24.1139 9.19238 23.9316 9.19238H22.7158V10.1591H23.9316C24.1139 10.1591 24.2963 10.1591 24.4179 10.0986C24.5395 10.0382 24.6003 9.85697 24.6003 9.67572C24.661 9.43405 24.5395 9.31322 24.4179 9.2528Z" fill="#228FE0"/>
<path d="M20.1625 2.00256C20.041 1.94214 19.8586 1.94214 19.6762 1.94214H18.4604V2.90882H19.6762C19.8586 2.90882 20.041 2.90882 20.1625 2.8484C20.2841 2.78798 20.3449 2.60673 20.3449 2.42548C20.4057 2.18381 20.2841 2.06297 20.1625 2.00256Z" fill="#228FE0"/>
<path d="M27.5181 3.45267H28.9162L28.2475 1.76099L27.5181 3.45267Z" fill="#228FE0"/>
<path d="M17.184 12.153V8.70923L15.6035 10.4009L17.184 12.153Z" fill="#228FE0"/>
<path d="M19.4938 9.13208H18.2173V10.2196H19.5546C19.9194 10.2196 20.1625 10.0383 20.1625 9.67584C20.1017 9.31333 19.8586 9.13208 19.4938 9.13208Z" fill="#228FE0"/>
<path d="M24.4179 9.2528C24.2963 9.19238 24.1139 9.19238 23.9316 9.19238H22.7158V10.1591H23.9316C24.1139 10.1591 24.2963 10.1591 24.4179 10.0986C24.5395 10.0382 24.6003 9.85697 24.6003 9.67572C24.661 9.43405 24.5395 9.31322 24.4179 9.2528Z" fill="#228FE0"/>
<path d="M19.0684 12.3944L18.2174 11.4882V12.5152H16.2114L14.9956 11.1256L13.6582 12.5152H9.6462V8.28603H13.719L14.9956 9.67563L15.6035 8.95062L14.0838 7.44019H8.73438V13.3611H14.0838L14.9956 12.4548L15.7858 13.3611H19.0684V12.3944Z" fill="#2FABF7"/>
<path d="M12.7463 6.11304L11.9561 5.2672H11.5913V4.9047L10.6795 3.99843L10.0716 5.2672H9.22058L7.76166 1.94424V5.2672H5.69485L5.26933 4.36094H3.20252L2.777 5.2672H1.6828L3.50646 1.03798H5.02617L6.72825 5.08595V1.03798H7.64008L6.78904 0.192139H5.87721V0.917148L5.57327 0.192139H2.89857L1.6828 3.03176L0.284668 6.11304H1.6828H3.44567L3.8104 5.20678H4.66144L5.08696 6.11304H8.49112V5.38803L8.79506 6.11304H10.5579L10.8619 5.38803V6.11304H12.7463Z" fill="#2FABF7"/>
<path d="M9.95016 3.33191L8.97754 2.36523L9.707 3.93609L9.95016 3.33191Z" fill="#2FABF7"/>
<path d="M37.6089 13.0591C38.156 12.6966 38.5207 12.0924 38.5815 11.4278L37.7304 10.582C37.7912 10.7632 37.852 10.9445 37.852 11.1862C37.852 11.5487 37.7304 11.8508 37.4873 12.0924C37.2441 12.3341 36.8186 12.5153 36.2107 12.5153H34.2655V11.6091H36.2107C36.3931 11.6091 36.5147 11.6091 36.6362 11.4883C36.697 11.4278 36.7578 11.307 36.7578 11.1862C36.7578 11.0653 36.697 10.9445 36.6362 10.8841C36.5755 10.8237 36.4539 10.7632 36.2715 10.7632C35.2989 10.7028 34.1439 10.7632 34.1439 9.43406C34.1439 8.82988 34.5086 8.28613 35.4205 8.16529L34.7518 7.5007C34.6302 7.56112 34.5694 7.62154 34.5086 7.62154V7.25903H31.7124C31.2869 7.25903 30.7398 7.37987 30.4966 7.62154V7.25903H25.512V7.62154C25.1472 7.31945 24.4785 7.25903 24.1746 7.25903H20.892V7.62154C20.5881 7.31945 19.8586 7.25903 19.4939 7.25903H15.8466L14.9955 8.16529L14.2053 7.25903H13.5366L15.3603 9.07156L16.2721 8.10488H19.4939C20.2841 8.10488 21.196 8.34655 21.196 9.49448C21.196 10.7028 20.3449 10.9445 19.4331 10.9445H18.2173V11.8508L19.1292 12.757V11.8508H19.4331C19.8586 11.8508 20.4057 11.8508 20.8312 11.6695V13.3008H23.5667V11.7299H23.6883C23.8707 11.7299 23.8707 11.7299 23.8707 11.9112V13.3008H32.1379C32.685 13.3008 33.2321 13.1799 33.536 12.9383V13.3008H36.1499C36.6362 13.3612 37.1833 13.3008 37.6089 13.0591ZM25.512 10.8841C25.6335 11.0653 25.6943 11.307 25.6943 11.6695V12.5153H24.6609V11.9716C24.6609 11.7299 24.6609 11.307 24.4785 11.1257C24.357 10.9445 24.1138 10.9445 23.7491 10.9445H22.6549V12.5153H21.6215V8.22571H23.9315C24.4178 8.22571 24.8433 8.22571 25.1472 8.40696C25.4512 8.58822 25.6943 8.8903 25.6943 9.37364C25.6943 10.0382 25.2688 10.4007 24.9649 10.5216C25.2688 10.6424 25.4512 10.7632 25.512 10.8841ZM29.7064 9.13197H27.3356V9.9174H29.6456V10.7632H27.3356V11.6091H29.7064V12.5153H26.3022V8.22571H29.7064V9.13197ZM32.2595 12.5153H30.3142V11.6091H32.2595C32.4418 11.6091 32.5634 11.6091 32.685 11.4883C32.7458 11.4278 32.8066 11.307 32.8066 11.1862C32.8066 11.0653 32.7458 10.9445 32.685 10.8841C32.6242 10.8237 32.5026 10.7632 32.3203 10.7632C31.3476 10.7028 30.1927 10.7632 30.1927 9.43406C30.1927 8.82988 30.5574 8.16529 31.6516 8.16529H33.6576V9.19239H31.7732C31.5908 9.19239 31.4692 9.19239 31.3476 9.25281C31.2261 9.31322 31.2261 9.43406 31.2261 9.55489C31.2261 9.73615 31.3476 9.79656 31.4692 9.85698C31.5908 9.9174 31.7124 9.9174 31.834 9.9174H32.3811C32.9281 9.9174 33.2929 10.0382 33.536 10.2799C33.7184 10.4612 33.84 10.7632 33.84 11.1862C33.84 12.0924 33.2929 12.5153 32.2595 12.5153Z" fill="#228FE0"/>
<path d="M35.1772 9.55489C35.1772 9.73614 35.238 9.79656 35.4204 9.85697C35.542 9.91739 35.6636 9.91739 35.7851 9.91739H36.3322C36.697 9.91739 36.9401 9.97781 37.1833 10.0986L36.2714 9.19238H35.7243C35.542 9.19238 35.4204 9.19238 35.2988 9.2528C35.238 9.31322 35.1772 9.43405 35.1772 9.55489Z" fill="#228FE0"/>
<path d="M33.0498 5.92969L33.1718 6.1116H33.2328L33.0498 5.92969Z" fill="#228FE0"/>
<path d="M29.7061 2.60693L30.7395 5.08405V3.63403L29.7061 2.60693Z" fill="#228FE0"/>
<path d="M19.3115 4.60054H19.4331C19.5546 4.60054 19.5546 4.60054 19.5546 4.78179V6.11098H23.9314V5.74847C24.2961 5.92972 24.8432 6.11098 25.5727 6.11098H27.3963L27.7611 5.1443H28.6121L28.9769 6.11098H32.5026V5.5068L31.6515 4.66096V5.32555H29.5847L29.2808 4.35887H27.1532L26.7885 5.32555H25.6335C25.1472 5.32555 24.5393 5.20471 24.1746 4.84221C23.8098 4.47971 23.6275 3.99637 23.6275 3.21094C23.6275 2.60677 23.749 2.00259 24.1746 1.51925C24.4785 1.15675 25.0256 1.03592 25.6943 1.03592H26.6669V1.94218H25.6943C25.3295 1.94218 25.1472 2.00259 24.904 2.18385C24.7217 2.3651 24.6001 2.7276 24.6001 3.15052C24.6001 3.63386 24.6609 3.93595 24.904 4.17762C25.0864 4.35887 25.3295 4.41929 25.6335 4.41929H26.059L27.4571 1.09633H28.065L27.214 0.250488H25.6335C24.9648 0.250488 24.4177 0.371323 23.9314 0.612993V0.250488H21.2567V0.612993C20.9528 0.371323 20.588 0.250488 20.1017 0.250488H10.3148L9.6461 1.76092L8.97743 0.250488H6.30273L7.15377 1.09633H8.36954L9.40295 3.33178L9.76768 3.69428L10.8619 1.03592H12.564V5.32555H11.5305V2.00259L10.4971 4.41929L12.26 6.17139H19.2507L19.3115 4.60054ZM22.1077 1.03592H23.1412V5.32555H22.1077V1.03592ZM16.7584 1.94218H14.3876V2.7276H16.6976V3.57344H14.3876V4.41929H16.7584V5.32555H13.3542V1.03592H16.7584V1.94218ZM18.4604 5.26513H17.427V0.975497H19.737C20.2841 0.975497 20.6488 0.975497 20.9528 1.15675C21.2567 1.338 21.4391 1.64009 21.4391 2.12343C21.4391 2.78802 21.0136 3.15052 20.7096 3.27136C20.9528 3.33178 21.1351 3.51303 21.1959 3.63386C21.3175 3.87553 21.3783 4.05678 21.3783 4.41929V5.26513H20.3449V4.72137C20.3449 4.47971 20.3449 4.1172 20.1625 3.87553C20.1017 3.7547 19.9194 3.7547 19.5546 3.7547H18.4604V5.26513Z" fill="#228FE0"/>
</g>
<defs>
<clipPath id="clip0">
<rect width="38.2968" height="13.3735" fill="white" transform="translate(0.284668 0.119141)"/>
</clipPath>
</defs>
</svg>
