<svg width="131" height="38" viewBox="0 0 131 38" fill="none" xmlns="http://www.w3.org/2000/svg">
<path d="M129.707 33.0871C129.707 35.0803 128.047 36.6948 125.993 36.6948H4.44391C2.39111 36.6948 0.724854 35.0803 0.724854 33.0871V4.31742C0.724854 2.32522 2.39111 0.705078 4.44391 0.705078H125.992C128.047 0.705078 129.706 2.32522 129.706 4.31742L129.707 33.0871Z" fill="black"/>
<path d="M125.601 0.749505C127.837 0.749505 129.657 2.51086 129.657 4.67545V32.7262C129.657 34.8908 127.837 36.6522 125.601 36.6522H4.83079C2.59413 36.6522 0.774134 34.8908 0.774134 32.7262V4.67545C0.774134 2.51086 2.59413 0.749505 4.83079 0.749505H125.601ZM125.601 0.000315675H4.83079C2.17506 0.000315675 0 2.10529 0 4.67545V32.7262C0 35.2964 2.17506 37.4014 4.83079 37.4014H125.601C128.256 37.4014 130.431 35.2964 130.431 32.7262V4.67545C130.431 2.10529 128.256 0.000315675 125.601 0.000315675Z" fill="#A6A6A6"/>
<path d="M29.1085 18.498C29.0805 15.4844 31.6582 14.0183 31.7761 13.95C30.3162 11.8902 28.0535 11.6087 27.2583 11.5863C25.3579 11.3927 23.5145 12.6868 22.5464 12.6868C21.559 12.6868 20.0682 11.605 18.4615 11.6368C16.3939 11.6676 14.4597 12.8261 13.3988 14.6251C11.2095 18.2932 12.8423 23.6837 14.9398 26.6486C15.9891 28.1007 17.2151 29.7221 18.8199 29.665C20.3899 29.6024 20.9764 28.6963 22.871 28.6963C24.7483 28.6963 25.299 29.665 26.9357 29.6286C28.6206 29.6024 29.6815 28.1699 30.694 26.7047C31.9065 25.0404 32.3935 23.4013 32.4128 23.3171C32.3732 23.304 29.1404 22.11 29.1085 18.498Z" fill="white"/>
<path d="M26.0168 9.63582C26.8613 8.61384 27.439 7.22345 27.2786 5.8125C26.0564 5.86486 24.528 6.63065 23.6478 7.63019C22.8691 8.51099 22.1735 9.95467 22.3532 11.3123C23.7261 11.4114 25.1357 10.6419 26.0168 9.63582Z" fill="white"/>
<path d="M51.8292 29.458H49.635L48.4331 25.803H44.2554L43.1105 29.458H40.9744L45.1134 17.0146H47.6698L51.8292 29.458ZM48.0708 24.2695L46.9839 21.0203C46.8689 20.6884 46.6534 19.9067 46.3356 18.6762H46.2969C46.1704 19.2054 45.9665 19.9871 45.6863 21.0203L44.6187 24.2695H48.0708Z" fill="white"/>
<path d="M62.4729 24.8599C62.4729 26.3859 62.0469 27.5921 61.1947 28.4775C60.4315 29.2658 59.4836 29.6594 58.3523 29.6594C57.1311 29.6594 56.2538 29.2349 55.7195 28.3859H55.6809V33.1125H53.621V23.4378C53.621 22.4784 53.5949 21.4938 53.5447 20.484H55.3562L55.4712 21.9062H55.5098C56.1968 20.8346 57.2393 20.2998 58.6383 20.2998C59.732 20.2998 60.645 20.7178 61.3754 21.5546C62.1077 22.3924 62.4729 23.4939 62.4729 24.8599ZM60.3744 24.9329C60.3744 24.0595 60.1716 23.3396 59.7638 22.7729C59.3184 22.182 58.7204 21.8865 57.9706 21.8865C57.4624 21.8865 57.0006 22.0511 56.5881 22.3756C56.1746 22.7028 55.904 23.1301 55.7775 23.6594C55.7137 23.9062 55.6818 24.1082 55.6818 24.2671V25.7632C55.6818 26.4158 55.8886 26.9665 56.3021 27.4163C56.7156 27.866 57.2528 28.0904 57.9136 28.0904C58.6895 28.0904 59.2933 27.8006 59.7252 27.2227C60.158 26.644 60.3744 25.881 60.3744 24.9329Z" fill="white"/>
<path d="M73.1365 24.8599C73.1365 26.3859 72.7105 27.5921 71.8573 28.4775C71.095 29.2658 70.1472 29.6594 69.0159 29.6594C67.7946 29.6594 66.9174 29.2349 66.3841 28.3859H66.3454V33.1125H64.2856V23.4378C64.2856 22.4784 64.2595 21.4938 64.2092 20.484H66.0208L66.1358 21.9062H66.1744C66.8604 20.8346 67.9029 20.2998 69.3028 20.2998C70.3955 20.2998 71.3086 20.7178 72.0409 21.5546C72.7704 22.3924 73.1365 23.4939 73.1365 24.8599ZM71.038 24.9329C71.038 24.0595 70.8342 23.3396 70.4265 22.7729C69.9811 22.182 69.3849 21.8865 68.6342 21.8865C68.1251 21.8865 67.6642 22.0511 67.2507 22.3756C66.8372 22.7028 66.5676 23.1301 66.4411 23.6594C66.3783 23.9062 66.3454 24.1082 66.3454 24.2671V25.7632C66.3454 26.4158 66.5522 26.9665 66.9637 27.4163C67.3773 27.8651 67.9144 28.0904 68.5772 28.0904C69.3531 28.0904 69.9569 27.8006 70.3888 27.2227C70.8216 26.644 71.038 25.881 71.038 24.9329Z" fill="white"/>
<path d="M85.0589 25.9682C85.0589 27.0266 84.6792 27.8878 83.9169 28.5526C83.0792 29.2791 81.9131 29.6419 80.4146 29.6419C79.031 29.6419 77.9219 29.3838 77.0823 28.8668L77.5596 27.2052C78.4639 27.7344 79.4561 28 80.5373 28C81.3131 28 81.9169 27.8298 82.3507 27.4913C82.7826 27.1529 82.9981 26.6984 82.9981 26.1318C82.9981 25.6269 82.8203 25.2015 82.4638 24.8564C82.1092 24.5114 81.5169 24.1907 80.6899 23.8943C78.4388 23.0817 77.3142 21.8915 77.3142 20.3262C77.3142 19.3033 77.7083 18.4646 78.4977 17.8119C79.2842 17.1584 80.3334 16.832 81.6454 16.832C82.8155 16.832 83.7874 17.0293 84.5632 17.423L84.0483 19.048C83.3237 18.6666 82.5044 18.4758 81.5875 18.4758C80.8629 18.4758 80.2967 18.6488 79.8909 18.9929C79.5479 19.3005 79.3759 19.6754 79.3759 20.1196C79.3759 20.6114 79.5721 21.0181 79.9663 21.3379C80.3092 21.6334 80.9324 21.9532 81.8367 22.2982C82.943 22.7292 83.7555 23.2332 84.2782 23.8111C84.799 24.387 85.0589 25.108 85.0589 25.9682Z" fill="white"/>
<path d="M91.8693 21.9807H89.5988V26.337C89.5988 27.445 89.9988 27.9985 90.8007 27.9985C91.1688 27.9985 91.4741 27.9677 91.7156 27.906L91.7727 29.4198C91.3669 29.5666 90.8326 29.6404 90.1708 29.6404C89.3573 29.6404 88.7216 29.4001 88.2627 28.9205C87.8057 28.4399 87.5757 27.6339 87.5757 26.5016V21.9788H86.2231V20.4828H87.5757V18.84L89.5988 18.249V20.4828H91.8693V21.9807Z" fill="white"/>
<path d="M102.114 24.8964C102.114 26.2756 101.706 27.4079 100.893 28.2934C100.04 29.205 98.9072 29.6595 97.4956 29.6595C96.1353 29.6595 95.0522 29.2228 94.2445 28.3495C93.4368 27.4762 93.033 26.3738 93.033 25.0451C93.033 23.6547 93.4484 22.5159 94.2822 21.6304C95.1141 20.744 96.2367 20.3008 97.6483 20.3008C99.0086 20.3008 100.103 20.7374 100.929 21.6117C101.72 22.4598 102.114 23.5547 102.114 24.8964ZM99.9767 24.961C99.9767 24.1335 99.7941 23.4238 99.4241 22.8319C98.9922 22.1157 98.3748 21.7585 97.5749 21.7585C96.7469 21.7585 96.1179 22.1166 95.686 22.8319C95.316 23.4247 95.1334 24.1456 95.1334 24.9984C95.1334 25.8259 95.316 26.5355 95.686 27.1265C96.1314 27.8427 96.7536 28.1999 97.5565 28.1999C98.343 28.1999 98.9603 27.8352 99.4057 27.1078C99.7854 26.5047 99.9767 25.7875 99.9767 24.961Z" fill="white"/>
<path d="M108.81 22.2372C108.606 22.2007 108.388 22.182 108.16 22.182C107.436 22.182 106.875 22.4466 106.481 22.9768C106.138 23.4443 105.966 24.0352 105.966 24.7487V29.4565H103.907L103.927 23.3097C103.927 22.2755 103.901 21.3339 103.849 20.4849H105.644L105.719 22.2016H105.776C105.993 21.6116 106.336 21.1367 106.806 20.7804C107.265 20.4597 107.76 20.2998 108.295 20.2998C108.485 20.2998 108.657 20.3129 108.81 20.3363V22.2372Z" fill="white"/>
<path d="M118.021 24.546C118.021 24.9032 117.997 25.2042 117.946 25.4502H111.766C111.791 26.3366 112.089 27.0145 112.663 27.482C113.184 27.8999 113.857 28.1094 114.684 28.1094C115.599 28.1094 116.434 27.9682 117.185 27.6849L117.507 29.0687C116.63 29.439 115.594 29.6232 114.399 29.6232C112.962 29.6232 111.833 29.2136 111.012 28.3955C110.193 27.5773 109.782 26.4787 109.782 25.1005C109.782 23.7475 110.164 22.6208 110.928 21.7222C111.728 20.7629 112.809 20.2832 114.169 20.2832C115.505 20.2832 116.517 20.7629 117.204 21.7222C117.748 22.4843 118.021 23.4268 118.021 24.546ZM116.057 24.0289C116.071 23.438 115.936 22.9275 115.657 22.4964C115.301 21.9419 114.753 21.6652 114.016 21.6652C113.342 21.6652 112.794 21.9354 112.376 22.4777C112.033 22.9088 111.829 23.4258 111.766 24.028H116.057V24.0289Z" fill="white"/>
<path d="M47.3901 9.35886C47.3901 10.4594 47.0491 11.2878 46.3679 11.8442C45.737 12.3575 44.8404 12.6146 43.6791 12.6146C43.1033 12.6146 42.6105 12.5903 42.198 12.5417V6.52853C42.7361 6.44438 43.3158 6.40137 43.9419 6.40137C45.0482 6.40137 45.882 6.63419 46.4443 7.09983C47.0742 7.62625 47.3901 8.37895 47.3901 9.35886ZM46.3225 9.38597C46.3225 8.67255 46.1274 8.12556 45.737 7.74406C45.3467 7.36351 44.7767 7.17276 44.026 7.17276C43.7071 7.17276 43.4356 7.19333 43.2105 7.23635V11.8077C43.3352 11.8264 43.5632 11.8348 43.8946 11.8348C44.6694 11.8348 45.2675 11.6263 45.6887 11.2093C46.11 10.7923 46.3225 10.1845 46.3225 9.38597Z" fill="white"/>
<path d="M53.0511 10.3206C53.0511 10.9985 52.8511 11.5539 52.4511 11.9897C52.0318 12.4375 51.4762 12.661 50.7825 12.661C50.114 12.661 49.5816 12.4469 49.1845 12.0168C48.7884 11.5876 48.5903 11.0462 48.5903 10.3936C48.5903 9.71099 48.7942 9.15091 49.2038 8.71612C49.6135 8.28134 50.1642 8.06348 50.8579 8.06348C51.5265 8.06348 52.0637 8.2776 52.4704 8.70677C52.8569 9.1238 53.0511 9.66237 53.0511 10.3206ZM52.0009 10.3524C52.0009 9.94568 51.9101 9.59692 51.7294 9.30613C51.5168 8.95456 51.2144 8.77877 50.8212 8.77877C50.4144 8.77877 50.1053 8.95456 49.8927 9.30613C49.7111 9.59692 49.6212 9.95129 49.6212 10.3702C49.6212 10.7769 49.712 11.1257 49.8927 11.4165C50.112 11.768 50.4173 11.9438 50.8115 11.9438C51.198 11.9438 51.5014 11.7652 51.7197 11.4071C51.9072 11.1107 52.0009 10.7592 52.0009 10.3524Z" fill="white"/>
<path d="M60.6411 8.15332L59.216 12.561H58.2885L57.6982 10.647C57.5484 10.1692 57.4267 9.69424 57.332 9.22299H57.3136C57.2257 9.70733 57.104 10.1814 56.9475 10.647L56.3204 12.561H55.3823L54.0422 8.15332H55.0828L55.5977 10.2487C55.7224 10.7443 55.8248 11.2165 55.9069 11.6634H55.9253C56.0006 11.295 56.1253 10.8256 56.3011 10.2581L56.9475 8.15426H57.7726L58.3919 10.2132C58.5416 10.7153 58.6634 11.1987 58.7571 11.6643H58.7851C58.8537 11.2109 58.9571 10.7274 59.0943 10.2132L59.6469 8.15426H60.6411V8.15332Z" fill="white"/>
<path d="M65.8901 12.5599H64.8776V10.0353C64.8776 9.25734 64.5723 8.86837 63.9597 8.86837C63.6592 8.86837 63.4167 8.97496 63.2283 9.18908C63.0419 9.4032 62.9472 9.65566 62.9472 9.94458V12.5589H61.9347V9.41162C61.9347 9.02452 61.9221 8.60469 61.8979 8.15027H62.7878L62.8351 8.83938H62.8631C62.981 8.62526 63.1569 8.44854 63.3878 8.30735C63.6621 8.14279 63.9694 8.05957 64.3056 8.05957C64.7307 8.05957 65.0843 8.19234 65.3655 8.45883C65.7152 8.78515 65.8901 9.2723 65.8901 9.91934V12.5599Z" fill="white"/>
<path d="M68.6822 12.561H67.6707V6.13086H68.6822V12.561Z" fill="white"/>
<path d="M74.6441 10.3206C74.6441 10.9985 74.4441 11.5539 74.0441 11.9897C73.6248 12.4375 73.0683 12.661 72.3756 12.661C71.706 12.661 71.1737 12.4469 70.7775 12.0168C70.3814 11.5876 70.1833 11.0462 70.1833 10.3936C70.1833 9.71099 70.3872 9.15091 70.7969 8.71612C71.2065 8.28134 71.7572 8.06348 72.45 8.06348C73.1195 8.06348 73.6557 8.2776 74.0634 8.70677C74.4499 9.1238 74.6441 9.66237 74.6441 10.3206ZM73.5929 10.3524C73.5929 9.94568 73.5021 9.59692 73.3214 9.30613C73.1098 8.95456 72.8065 8.77877 72.4142 8.77877C72.0065 8.77877 71.6973 8.95456 71.4857 9.30613C71.3041 9.59692 71.2142 9.95129 71.2142 10.3702C71.2142 10.7769 71.3051 11.1257 71.4857 11.4165C71.705 11.768 72.0104 11.9438 72.4046 11.9438C72.791 11.9438 73.0934 11.7652 73.3118 11.4071C73.5002 11.1107 73.5929 10.7592 73.5929 10.3524Z" fill="white"/>
<path d="M79.5442 12.561H78.635L78.5597 12.0532H78.5317C78.2206 12.4581 77.7771 12.661 77.2013 12.661C76.7713 12.661 76.4235 12.5273 76.1617 12.2617C75.924 12.0205 75.8052 11.7204 75.8052 11.3641C75.8052 10.8255 76.0371 10.4151 76.5037 10.1308C76.9694 9.84657 77.6245 9.70725 78.4679 9.7138V9.63152C78.4679 9.05086 78.1529 8.76101 77.522 8.76101C77.0728 8.76101 76.6767 8.8704 76.3346 9.08733L76.1288 8.44403C76.552 8.19064 77.0747 8.06348 77.6911 8.06348C78.8814 8.06348 79.4785 8.67124 79.4785 9.88678V11.51C79.4785 11.9504 79.5007 12.301 79.5442 12.561ZM78.493 11.0462V10.3664C77.3761 10.3477 76.8177 10.6441 76.8177 11.2547C76.8177 11.4847 76.8815 11.6568 77.0119 11.7718C77.1423 11.8868 77.3085 11.9438 77.5066 11.9438C77.7288 11.9438 77.9365 11.8756 78.1259 11.74C78.3162 11.6035 78.4331 11.4305 78.4766 11.2183C78.4872 11.1706 78.493 11.1126 78.493 11.0462Z" fill="white"/>
<path d="M85.2972 12.561H84.3986L84.3513 11.8532H84.3233C84.0363 12.3918 83.5475 12.6611 82.8605 12.6611C82.3117 12.6611 81.8547 12.4526 81.4924 12.0356C81.1301 11.6185 80.9495 11.0771 80.9495 10.4123C80.9495 9.69892 81.1456 9.12107 81.5398 8.67974C81.9214 8.26833 82.389 8.06262 82.9455 8.06262C83.5571 8.06262 83.9851 8.26178 84.2286 8.66104H84.2479V6.13086H85.2614V11.3736C85.2614 11.8027 85.273 12.1982 85.2972 12.561ZM84.2479 10.7022V9.96727C84.2479 9.84011 84.2383 9.73726 84.2199 9.65871C84.1629 9.42309 84.0402 9.22486 83.8537 9.06497C83.6653 8.90508 83.4383 8.82467 83.1764 8.82467C82.7987 8.82467 82.503 8.9696 82.2857 9.26039C82.0702 9.55119 81.961 9.92239 81.961 10.3759C81.961 10.8116 82.0644 11.165 82.2721 11.4371C82.4914 11.727 82.7871 11.8719 83.1571 11.8719C83.4895 11.8719 83.7552 11.7513 83.9571 11.5091C84.1523 11.2857 84.2479 11.0164 84.2479 10.7022Z" fill="white"/>
<path d="M93.9571 10.3206C93.9571 10.9985 93.7571 11.5539 93.3571 11.9897C92.9378 12.4375 92.3832 12.661 91.6886 12.661C91.0209 12.661 90.4886 12.4469 90.0905 12.0168C89.6944 11.5876 89.4963 11.0462 89.4963 10.3936C89.4963 9.71099 89.7002 9.15091 90.1098 8.71612C90.5195 8.28134 91.0702 8.06348 91.7649 8.06348C92.4325 8.06348 92.9706 8.2776 93.3764 8.70677C93.7629 9.1238 93.9571 9.66237 93.9571 10.3206ZM92.9078 10.3524C92.9078 9.94568 92.817 9.59692 92.6363 9.30613C92.4228 8.95456 92.1214 8.77877 91.7272 8.77877C91.3214 8.77877 91.0122 8.95456 90.7987 9.30613C90.6171 9.59692 90.5272 9.95129 90.5272 10.3702C90.5272 10.7769 90.618 11.1257 90.7987 11.4165C91.018 11.768 91.3233 11.9438 91.7175 11.9438C92.104 11.9438 92.4083 11.7652 92.6267 11.4071C92.8132 11.1107 92.9078 10.7592 92.9078 10.3524Z" fill="white"/>
<path d="M99.4014 12.5599H98.3898V10.0353C98.3898 9.25734 98.0845 8.86837 97.471 8.86837C97.1705 8.86837 96.928 8.97496 96.7406 9.18908C96.5531 9.4032 96.4594 9.65566 96.4594 9.94458V12.5589H95.4459V9.41162C95.4459 9.02452 95.4343 8.60469 95.4102 8.15027H96.299L96.3464 8.83938H96.3744C96.4932 8.62526 96.6691 8.44854 96.899 8.30735C97.1744 8.14279 97.4806 8.05957 97.8178 8.05957C98.242 8.05957 98.5956 8.19234 98.8767 8.45883C99.2274 8.78515 99.4014 9.2723 99.4014 9.91934V12.5599Z" fill="white"/>
<path d="M106.215 8.88738H105.101V11.0286C105.101 11.5728 105.299 11.8449 105.691 11.8449C105.872 11.8449 106.023 11.8299 106.142 11.7991L106.168 12.5424C105.968 12.6153 105.705 12.6518 105.382 12.6518C104.982 12.6518 104.671 12.534 104.445 12.2984C104.219 12.0627 104.107 11.6663 104.107 11.1099V8.88738H103.442V8.15338H104.107V7.34552L105.1 7.05566V8.15245H106.215V8.88738H106.215Z" fill="white"/>
<path d="M111.576 12.561H110.563V10.0552C110.563 9.26507 110.258 8.86955 109.646 8.86955C109.176 8.86955 108.856 9.09863 108.68 9.5568C108.65 9.6531 108.632 9.77092 108.632 9.9093V12.5601H107.621V6.13086H108.632V8.78727H108.652C108.971 8.30386 109.428 8.06262 110.02 8.06262C110.439 8.06262 110.786 8.1954 111.061 8.46188C111.404 8.79381 111.576 9.28751 111.576 9.94016V12.561Z" fill="white"/>
<path d="M117.105 10.1482C117.105 10.324 117.092 10.4717 117.068 10.5923H114.031C114.045 11.0281 114.189 11.36 114.471 11.59C114.728 11.7957 115.059 11.8986 115.465 11.8986C115.914 11.8986 116.324 11.8294 116.693 11.6901L116.851 12.3708C116.419 12.5522 115.911 12.6429 115.323 12.6429C114.617 12.6429 114.062 12.4418 113.66 12.0398C113.256 11.6377 113.056 11.0982 113.056 10.4212C113.056 9.75644 113.243 9.2029 113.618 8.76157C114.011 8.29031 114.541 8.05469 115.211 8.05469C115.866 8.05469 116.363 8.29031 116.7 8.76157C116.971 9.13558 117.105 9.59842 117.105 10.1482ZM116.139 9.89482C116.147 9.60403 116.08 9.35344 115.943 9.14212C115.767 8.87003 115.5 8.73352 115.137 8.73352C114.807 8.73352 114.537 8.86629 114.331 9.13277C114.163 9.34502 114.064 9.59842 114.031 9.89482H116.139Z" fill="white"/>
</svg>
