<svg width="40" height="8" viewBox="0 0 40 8" fill="none" xmlns="http://www.w3.org/2000/svg">
<g clip-path="url(#clip0)">
<path d="M21.2245 7.00138C23.0111 7.00138 24.4593 5.5197 24.4593 3.69197C24.4593 1.86424 23.0111 0.382568 21.2245 0.382568C19.438 0.382568 17.9897 1.86424 17.9897 3.69197C17.9897 5.5197 19.438 7.00138 21.2245 7.00138Z" fill="#F26E21"/>
<path d="M3.80238 5.27734C3.42121 5.62643 2.92936 5.77778 2.14825 5.77778H1.82415V1.62288H2.14825C2.92925 1.62288 3.40171 1.76426 3.80238 2.13118C4.22006 2.50808 4.46925 3.09152 4.46925 3.69439C4.46925 4.29757 4.22006 4.90161 3.80238 5.27734ZM2.3905 0.558838H0.615723V6.84087H2.38158C3.31871 6.84087 3.99607 6.61607 4.59043 6.11573C5.29538 5.52241 5.71389 4.62767 5.71389 3.70267C5.71379 1.848 4.34818 0.558838 2.3905 0.558838Z" fill="#0B161F"/>
<path d="M6.27051 6.84014H7.47707V0.558105H6.27051V6.84014Z" fill="#0B161F"/>
<path d="M10.4308 2.96804C9.7056 2.69516 9.49209 2.51568 9.49209 2.17815C9.49209 1.78215 9.87211 1.48072 10.3927 1.48072C10.7549 1.48072 11.0515 1.63122 11.3686 1.98827L11.9987 1.15105C11.4793 0.688818 10.8574 0.453613 10.1789 0.453613C9.08416 0.453613 8.24797 1.22609 8.24797 2.2515C8.24797 3.11929 8.63733 3.56167 9.77086 3.9771C10.2445 4.14586 10.4851 4.25826 10.6062 4.33489C10.8473 4.49537 10.9688 4.72049 10.9688 4.98425C10.9688 5.49382 10.5694 5.86987 10.0301 5.86987C9.45443 5.86987 8.99059 5.57841 8.71182 5.03191L7.93311 5.79557C8.48898 6.62324 9.15751 6.99218 10.0774 6.99218C11.3305 6.99218 12.2121 6.14307 12.2121 4.92863C12.2126 3.92955 11.805 3.47719 10.4308 2.96804Z" fill="#0B161F"/>
<path d="M12.5933 3.70196C12.5933 5.55026 14.0234 6.98197 15.8619 6.98197C16.3821 6.98197 16.8269 6.87752 17.3754 6.61536V5.17262C16.8922 5.66309 16.4647 5.8605 15.917 5.8605C14.7008 5.8605 13.8371 4.96533 13.8371 3.69326C13.8371 2.48795 14.7283 1.53599 15.8619 1.53599C16.4364 1.53599 16.8735 1.74286 17.3754 2.24256V0.800874C16.8467 0.528416 16.4092 0.416016 15.8891 0.416016C14.0605 0.41644 12.5933 1.8767 12.5933 3.70196Z" fill="#0B161F"/>
<path d="M27.1602 4.77786L25.5073 0.558105H24.189L26.8175 7.00104H27.4665L30.1412 0.558105H28.8318L27.1602 4.77786Z" fill="#0B161F"/>
<path d="M30.6899 6.84014H34.1153V5.77705H31.8968V4.07968H34.0303V3.01649H31.8968V1.62204H34.1153V0.558105H30.6899V6.84014Z" fill="#0B161F"/>
<path d="M36.4723 3.44975H36.1206V1.54583H36.4913C37.2448 1.54583 37.6536 1.86754 37.6536 2.47869C37.6536 3.10936 37.2448 3.44975 36.4723 3.44975ZM38.8954 2.41203C38.8954 1.23527 38.0977 0.558105 36.7041 0.558105H34.9126V6.84014H36.1203V4.31552H36.2787L37.9487 6.84014H39.4344L37.4837 4.19357C38.395 4.00538 38.8954 3.37354 38.8954 2.41203Z" fill="#0B161F"/>
</g>
<defs>
<clipPath id="clip0">
<rect width="38.9046" height="6.68674" fill="white" transform="translate(0.543945 0.374023)"/>
</clipPath>
</defs>
</svg>
