<svg width="33" height="71" viewBox="0 0 33 71" fill="none" xmlns="http://www.w3.org/2000/svg">
<circle cx="0.847648" cy="0.847709" r="0.847648" fill="#9CA6DD"/>
<circle cx="8.54784" cy="0.847648" r="0.847648" fill="#9CA6DD"/>
<circle cx="16.249" cy="0.847648" r="0.847648" fill="#9CA6DD"/>
<circle cx="23.9492" cy="0.847648" r="0.847648" fill="#9CA6DD"/>
<circle cx="31.6494" cy="0.847648" r="0.847648" fill="#9CA6DD"/>
<circle cx="0.847648" cy="8.54818" r="0.847648" fill="#9CA6DD"/>
<circle cx="8.54784" cy="8.54818" r="0.847648" fill="#9CA6DD"/>
<circle cx="16.249" cy="8.54818" r="0.847648" fill="#9CA6DD"/>
<circle cx="23.9492" cy="8.54818" r="0.847648" fill="#9CA6DD"/>
<circle cx="31.6494" cy="8.54818" r="0.847648" fill="#9CA6DD"/>
<circle cx="0.847648" cy="16.2487" r="0.847648" fill="#9CA6DD"/>
<circle cx="8.54784" cy="16.2487" r="0.847648" fill="#9CA6DD"/>
<circle cx="16.249" cy="16.2487" r="0.847648" fill="#9CA6DD"/>
<circle cx="23.9492" cy="16.2487" r="0.847648" fill="#9CA6DD"/>
<circle cx="31.6494" cy="16.2487" r="0.847648" fill="#9CA6DD"/>
<circle cx="0.847648" cy="23.9492" r="0.847648" fill="#9CA6DD"/>
<circle cx="8.54784" cy="23.9492" r="0.847648" fill="#9CA6DD"/>
<circle cx="16.249" cy="23.9492" r="0.847648" fill="#9CA6DD"/>
<circle cx="23.9492" cy="23.9492" r="0.847648" fill="#9CA6DD"/>
<circle cx="31.6494" cy="23.9492" r="0.847648" fill="#9CA6DD"/>
<circle cx="0.847648" cy="31.6497" r="0.847648" fill="#9CA6DD"/>
<circle cx="8.54784" cy="31.6497" r="0.847648" fill="#9CA6DD"/>
<circle cx="16.249" cy="31.6497" r="0.847648" fill="#9CA6DD"/>
<circle cx="23.9492" cy="31.6497" r="0.847648" fill="#9CA6DD"/>
<circle cx="31.6494" cy="31.6497" r="0.847648" fill="#9CA6DD"/>
<circle cx="0.847648" cy="39.3502" r="0.847648" fill="#9CA6DD"/>
<circle cx="8.54784" cy="39.3502" r="0.847648" fill="#9CA6DD"/>
<circle cx="16.249" cy="39.3502" r="0.847648" fill="#9CA6DD"/>
<circle cx="23.9492" cy="39.3502" r="0.847648" fill="#9CA6DD"/>
<circle cx="31.6494" cy="39.3502" r="0.847648" fill="#9CA6DD"/>
<circle cx="0.847648" cy="47.0508" r="0.847648" fill="#9CA6DD"/>
<circle cx="8.54784" cy="47.0508" r="0.847648" fill="#9CA6DD"/>
<circle cx="16.249" cy="47.0508" r="0.847648" fill="#9CA6DD"/>
<circle cx="23.9492" cy="47.0508" r="0.847648" fill="#9CA6DD"/>
<circle cx="31.6494" cy="47.0508" r="0.847648" fill="#9CA6DD"/>
<circle cx="0.847648" cy="54.7513" r="0.847648" fill="#9CA6DD"/>
<circle cx="8.54784" cy="54.7513" r="0.847648" fill="#9CA6DD"/>
<circle cx="16.249" cy="54.7513" r="0.847648" fill="#9CA6DD"/>
<circle cx="23.9492" cy="54.7513" r="0.847648" fill="#9CA6DD"/>
<circle cx="31.6494" cy="54.7513" r="0.847648" fill="#9CA6DD"/>
<circle cx="0.847648" cy="62.4518" r="0.847648" fill="#9CA6DD"/>
<circle cx="8.54784" cy="62.4518" r="0.847648" fill="#9CA6DD"/>
<circle cx="16.249" cy="62.4518" r="0.847648" fill="#9CA6DD"/>
<circle cx="23.9492" cy="62.4518" r="0.847648" fill="#9CA6DD"/>
<circle cx="31.6494" cy="62.4518" r="0.847648" fill="#9CA6DD"/>
<circle cx="0.847648" cy="70.1524" r="0.847648" fill="#9CA6DD"/>
<circle cx="8.54784" cy="70.1524" r="0.847648" fill="#9CA6DD"/>
<circle cx="16.249" cy="70.1524" r="0.847648" fill="#9CA6DD"/>
<circle cx="23.9492" cy="70.1524" r="0.847648" fill="#9CA6DD"/>
<circle cx="31.6494" cy="70.1524" r="0.847648" fill="#9CA6DD"/>
</svg>
