<svg width="13" height="14" viewBox="0 0 13 14" fill="none" xmlns="http://www.w3.org/2000/svg">
<path d="M11.8143 8.08363L1.91773 13.8259C1.07785 14.3128 0 13.7233 0 12.7419V1.25725C0 0.277391 1.07629 -0.313637 1.91773 0.174739L11.8143 5.91705C12.0054 6.02611 12.1642 6.18376 12.2747 6.37402C12.3851 6.56427 12.4433 6.78034 12.4433 7.00034C12.4433 7.22033 12.3851 7.43641 12.2747 7.62666C12.1642 7.81691 12.0054 7.97456 11.8143 8.08363Z" fill="#4D68F1"/>
</svg>
