<svg width="1600" height="812" viewBox="0 0 1600 812" fill="none" xmlns="http://www.w3.org/2000/svg">
<rect width="1600" height="812" fill="url(#paint0_linear)"/>
<mask id="mask0" style="mask-type:alpha" maskUnits="userSpaceOnUse" x="0" y="0" width="1600" height="812">
<rect width="1600" height="812" fill="#C4C4C4"/>
</mask>
<g mask="url(#mask0)">
<path opacity="0.2" d="M1664 189.095C1646.49 43.6426 1536.55 -40 1390.98 -40C1224.84 -40 1098 77.4687 1098 283.5C1098 488.916 1222.69 607 1390.98 607C1552.21 607 1649.57 499.679 1664 383.748L1529.49 383.133C1516.9 450.478 1464.07 489.224 1393.13 489.224C1297.62 489.224 1232.82 418.189 1232.82 283.5C1232.82 152.501 1296.7 77.7762 1394.05 77.7762C1466.84 77.7762 1519.35 119.905 1529.49 189.095H1664Z" fill="white"/>
<g filter="url(#filter0_f)">
<circle cx="-32.4754" cy="601.811" r="92.1885" transform="rotate(90 -32.4754 601.811)" fill="#FF782D" fill-opacity="0.35"/>
</g>
<g filter="url(#filter1_f)">
<circle cx="-196.811" cy="601.811" r="92.1885" transform="rotate(90 -196.811 601.811)" fill="#FFC700" fill-opacity="0.35"/>
</g>
<g filter="url(#filter2_f)">
<circle cx="-104.623" cy="460.189" r="92.1885" transform="rotate(90 -104.623 460.189)" fill="#1A21BC" fill-opacity="0.35"/>
</g>
<g filter="url(#filter3_f)">
<circle cx="1682.52" cy="312.811" r="92.1885" transform="rotate(90 1682.52 312.811)" fill="#FF782D" fill-opacity="0.35"/>
</g>
<g filter="url(#filter4_f)">
<circle cx="1518.19" cy="312.811" r="92.1885" transform="rotate(90 1518.19 312.811)" fill="#FFC700" fill-opacity="0.35"/>
</g>
<g filter="url(#filter5_f)">
<circle cx="1610.38" cy="171.189" r="92.1885" transform="rotate(90 1610.38 171.189)" fill="#1A21BC" fill-opacity="0.35"/>
</g>
</g>
<defs>
<filter id="filter0_f" x="-331.664" y="302.623" width="598.377" height="598.377" filterUnits="userSpaceOnUse" color-interpolation-filters="sRGB">
<feFlood flood-opacity="0" result="BackgroundImageFix"/>
<feBlend mode="normal" in="SourceGraphic" in2="BackgroundImageFix" result="shape"/>
<feGaussianBlur stdDeviation="103.5" result="effect1_foregroundBlur"/>
</filter>
<filter id="filter1_f" x="-496" y="302.623" width="598.377" height="598.377" filterUnits="userSpaceOnUse" color-interpolation-filters="sRGB">
<feFlood flood-opacity="0" result="BackgroundImageFix"/>
<feBlend mode="normal" in="SourceGraphic" in2="BackgroundImageFix" result="shape"/>
<feGaussianBlur stdDeviation="103.5" result="effect1_foregroundBlur"/>
</filter>
<filter id="filter2_f" x="-403.812" y="161" width="598.377" height="598.377" filterUnits="userSpaceOnUse" color-interpolation-filters="sRGB">
<feFlood flood-opacity="0" result="BackgroundImageFix"/>
<feBlend mode="normal" in="SourceGraphic" in2="BackgroundImageFix" result="shape"/>
<feGaussianBlur stdDeviation="103.5" result="effect1_foregroundBlur"/>
</filter>
<filter id="filter3_f" x="1383.34" y="13.623" width="598.377" height="598.377" filterUnits="userSpaceOnUse" color-interpolation-filters="sRGB">
<feFlood flood-opacity="0" result="BackgroundImageFix"/>
<feBlend mode="normal" in="SourceGraphic" in2="BackgroundImageFix" result="shape"/>
<feGaussianBlur stdDeviation="103.5" result="effect1_foregroundBlur"/>
</filter>
<filter id="filter4_f" x="1219" y="13.6229" width="598.377" height="598.377" filterUnits="userSpaceOnUse" color-interpolation-filters="sRGB">
<feFlood flood-opacity="0" result="BackgroundImageFix"/>
<feBlend mode="normal" in="SourceGraphic" in2="BackgroundImageFix" result="shape"/>
<feGaussianBlur stdDeviation="103.5" result="effect1_foregroundBlur"/>
</filter>
<filter id="filter5_f" x="1311.19" y="-128" width="598.377" height="598.377" filterUnits="userSpaceOnUse" color-interpolation-filters="sRGB">
<feFlood flood-opacity="0" result="BackgroundImageFix"/>
<feBlend mode="normal" in="SourceGraphic" in2="BackgroundImageFix" result="shape"/>
<feGaussianBlur stdDeviation="103.5" result="effect1_foregroundBlur"/>
</filter>
<linearGradient id="paint0_linear" x1="800" y1="0" x2="800" y2="812" gradientUnits="userSpaceOnUse">
<stop stop-color="#EAEBFF"/>
<stop offset="0.836972" stop-color="#E6E7FF" stop-opacity="0.262661"/>
<stop offset="1" stop-color="#E5E7FF" stop-opacity="0"/>
</linearGradient>
</defs>
</svg>
