<svg width="20" height="14" viewBox="0 0 20 14" fill="none" xmlns="http://www.w3.org/2000/svg">
<path d="M19.5615 2.18694C19.4478 1.76346 19.2249 1.37727 18.915 1.06702C18.6052 0.756774 18.2193 0.533349 17.7959 0.419108C16.2377 8.5041e-08 9.99117 0 9.99117 0C9.99117 0 3.74467 -8.5041e-08 2.18639 0.416879C1.76287 0.530749 1.37676 0.75405 1.06685 1.06436C0.756935 1.37466 0.534121 1.76105 0.420785 2.18471C0.00390616 3.74522 0.00390625 7 0.00390625 7C0.00390625 7 0.00390616 10.2548 0.420785 11.8131C0.650403 12.6736 1.32811 13.3513 2.18639 13.5809C3.74467 14 9.99117 14 9.99117 14C9.99117 14 16.2377 14 17.7959 13.5809C18.6565 13.3513 19.3319 12.6736 19.5615 11.8131C19.9784 10.2548 19.9784 7 19.9784 7C19.9784 7 19.9784 3.74522 19.5615 2.18694ZM8.00709 9.98726V4.01274L13.1791 6.97771L8.00709 9.98726Z" fill="white"/>
</svg>
