<svg width="16" height="16" viewBox="0 0 16 16" fill="none" xmlns="http://www.w3.org/2000/svg">
<path d="M11.926 3.37681C12.5391 3.37681 13.0358 2.88342 13.0358 2.26915V1.10985C13.0358 0.495038 12.5397 0 11.926 0C11.3122 0 10.8167 0.494489 10.8167 1.10985V2.2697C10.8172 2.88342 11.3128 3.37681 11.926 3.37681Z" fill="white"/>
<path d="M15.8687 1.91974H13.6347V2.48401C13.6347 3.4153 12.8781 4.17406 11.9452 4.17406C11.0111 4.17406 10.2562 3.4153 10.2562 2.48401V1.91974H5.74813V2.48401C5.74813 3.4153 4.99046 4.17406 4.05808 4.17406C3.12569 4.17406 2.36858 3.41585 2.36858 2.48401V1.91974L0.114258 1.89172V16H1.24169H14.7599L15.8857 15.9967L15.8687 1.91974ZM14.7588 14.8764H1.24169V5.86357H14.7599V14.8764H14.7588Z" fill="white"/>
<path d="M4.04052 3.37681C4.65368 3.37681 5.15092 2.88342 5.15092 2.26915V1.10985C5.15092 0.494489 4.65368 0 4.04052 0C3.42735 0 2.93176 0.494489 2.93176 1.10985V2.2697C2.93176 2.88342 3.4268 3.37681 4.04052 3.37681Z" fill="white"/>
<path d="M7.52668 7.07281H5.75146V8.63979H7.52668V7.07281Z" fill="white"/>
<path d="M10.3986 7.07281H8.6217V8.63979H10.3986V7.07281Z" fill="white"/>
<path d="M13.0589 7.07281H11.2837V8.63979H13.0589V7.07281Z" fill="white"/>
<path d="M7.52668 9.67493H5.75146V11.2408H7.52668V9.67493Z" fill="white"/>
<path d="M10.3986 9.67493H8.6217V11.2408H10.3986V9.67493Z" fill="white"/>
<path d="M13.0589 9.67493H11.2837V11.2408H13.0589V9.67493Z" fill="white"/>
<path d="M7.52668 12.3287H5.75146V13.8946H7.52668V12.3287Z" fill="white"/>
<path d="M4.70588 9.67493H2.93176V11.2408H4.70588V9.67493Z" fill="white"/>
<path d="M4.70588 12.3287H2.93176V13.8946H4.70588V12.3287Z" fill="white"/>
<path d="M10.3986 12.3287H8.6217V13.8946H10.3986V12.3287Z" fill="white"/>
<path d="M13.0589 12.3287H11.2837V13.8946H13.0589V12.3287Z" fill="white"/>
</svg>
