<svg width="10" height="14" viewBox="0 0 10 14" fill="none" xmlns="http://www.w3.org/2000/svg">
<path fill-rule="evenodd" clip-rule="evenodd" d="M5 5.46393e-08C4.65482 8.48157e-08 4.375 0.279822 4.375 0.625L4.375 13.125C4.375 13.4702 4.65482 13.75 5 13.75C5.34518 13.75 5.625 13.4702 5.625 13.125L5.625 0.625C5.625 0.279822 5.34518 2.44628e-08 5 5.46393e-08Z" fill="#4D68F1"/>
<path fill-rule="evenodd" clip-rule="evenodd" d="M9.81694 8.30806C9.57286 8.06398 9.17714 8.06398 8.93306 8.30806L5 12.2411L1.06694 8.30806C0.822865 8.06398 0.427135 8.06398 0.183059 8.30806C-0.0610199 8.55214 -0.0610198 8.94786 0.183059 9.19194L4.55806 13.5669C4.80214 13.811 5.19786 13.811 5.44194 13.5669L9.81694 9.19194C10.061 8.94786 10.061 8.55214 9.81694 8.30806Z" fill="#4D68F1"/>
</svg>
