<svg width="22" height="14" viewBox="0 0 22 14" fill="none" xmlns="http://www.w3.org/2000/svg">
<path d="M14.293 1.70711C13.9025 1.31658 13.9025 0.683417 14.293 0.292893C14.6835 -0.0976311 15.3167 -0.0976311 15.7072 0.292893L21.7072 6.29289C22.0978 6.68342 22.0978 7.31658 21.7072 7.70711L15.7072 13.7071C15.3167 14.0976 14.6835 14.0976 14.293 13.7071C13.9025 13.3166 13.9025 12.6834 14.293 12.2929L18.5859 7.99998H1.01091C0.452531 7.99998 -0.00012207 7.55227 -0.00012207 6.99998C-0.00012207 6.4477 0.452531 5.99998 1.01091 5.99998H18.5859L14.293 1.70711Z" fill="white"/>
</svg>
