<svg width="20" height="14" viewBox="0 0 20 14" fill="none" xmlns="http://www.w3.org/2000/svg">
<path fill-rule="evenodd" clip-rule="evenodd" d="M0 7C0 6.51675 0.391751 6.125 0.875 6.125L18.375 6.125C18.8582 6.125 19.25 6.51675 19.25 7C19.25 7.48325 18.8582 7.875 18.375 7.875L0.875 7.875C0.391751 7.875 0 7.48325 0 7Z" fill="#1E1E1E"/>
<path fill-rule="evenodd" clip-rule="evenodd" d="M11.6313 13.7437C11.2896 13.402 11.2896 12.848 11.6313 12.5063L17.1376 7L11.6313 1.49372C11.2896 1.15201 11.2896 0.59799 11.6313 0.256282C11.973 -0.0854273 12.527 -0.0854273 12.8687 0.256282L18.9937 6.38128C19.3354 6.72299 19.3354 7.27701 18.9937 7.61872L12.8687 13.7437C12.527 14.0854 11.973 14.0854 11.6313 13.7437Z" fill="#1E1E1E"/>
</svg>
