<svg width="65" height="64" viewBox="0 0 65 64" fill="none" xmlns="http://www.w3.org/2000/svg">
<rect x="0.5" width="64" height="64" rx="6" fill="#E3E7FE"/>
<g clip-path="url(#clip0)">
<path d="M47.9216 28.5067C47.724 27.8992 47.1852 27.4692 46.5503 27.4117L37.8902 26.6255L34.4677 18.6127C34.215 18.024 33.64 17.644 33 17.644C32.3601 17.644 31.7849 18.024 31.5338 18.6127L28.1113 26.6255L19.4498 27.4117C18.8149 27.4703 18.2772 27.9004 18.0785 28.5067C17.881 29.1142 18.0634 29.7804 18.5436 30.2016L25.09 35.9418L23.1598 44.4431C23.0186 45.0682 23.2612 45.7146 23.7798 46.0895C24.0586 46.292 24.3862 46.3932 24.7148 46.3932C24.9973 46.3932 25.28 46.3181 25.5324 46.1671L33 41.702L40.4663 46.1671C41.014 46.4944 41.7027 46.4644 42.2202 46.0895C42.7389 45.7146 42.9815 45.0682 42.8403 44.4431L40.9101 35.9418L47.4565 30.2016C47.9364 29.7804 48.1191 29.1155 47.9216 28.5067Z" fill="#4D68F1"/>
</g>
<defs>
<clipPath id="clip0">
<rect width="30" height="30" fill="white" transform="translate(18 17)"/>
</clipPath>
</defs>
</svg>
