<svg width="65" height="64" viewBox="0 0 65 64" fill="none" xmlns="http://www.w3.org/2000/svg">
<rect x="0.5" width="64" height="64" rx="6" fill="#E3E7FE"/>
<path d="M32 17C23.7165 17 17 23.7156 17 32C17 40.2844 23.7165 47 32 47C40.2853 47 47 40.2844 47 32C47 23.7156 40.2853 17 32 17ZM37.5358 27.0047C38.7218 27.0047 39.6844 27.9673 39.6844 29.1533C39.6844 30.3393 38.7209 31.3019 37.5358 31.3019C36.3498 31.3019 35.3872 30.3393 35.3872 29.1533C35.3872 27.9673 36.3498 27.0047 37.5358 27.0047ZM26.4634 27.0047C27.6502 27.0047 28.612 27.9673 28.612 29.1533C28.612 30.3393 27.6502 31.3019 26.4634 31.3019C25.2774 31.3019 24.3147 30.3393 24.3147 29.1533C24.3147 27.9673 25.2782 27.0047 26.4634 27.0047ZM40.0934 37.2152C38.2558 39.8832 35.2295 41.4756 32 41.4756C28.7688 41.4756 25.7416 39.8832 23.9066 37.2143C23.4949 36.6169 23.6464 35.7988 24.2447 35.3872C24.8429 34.9746 25.6601 35.127 26.0718 35.7253C27.4172 37.6812 29.6342 38.8479 32.0009 38.8479C34.3676 38.8479 36.5828 37.6812 37.9317 35.7253C38.3434 35.1288 39.1597 34.9772 39.7588 35.388C40.3536 35.7997 40.5042 36.6169 40.0934 37.2152Z" fill="#4D68F1"/>
</svg>
